{
    "id": "workspace-explorer",
    "name": "Workspace Explorer",
    "authors": [
        {
            "first_name": "Drago",
            "last_name": "Mazic",
            "email": "drago.mazic.19@singimail.rs",
            "web_page": "INVALID URL"
        },
        {
            "first_name": "Filip",
            "last_name": "Zobic",
            "email": "filip.zobic.19@singimail.rs",
            "web_page": "INVALID URL"
        },
        {
            "first_name": "Bojan",
            "last_name": "Zdelar",
            "email": "bojan.zdelar.19@singimail.rs",
            "web_page": "INVALID URL"
        }
    ],
    "version": "1.0.0",
    "core_version": "1.0.0",
    "category": "explorer",
    "licence": "MIT",
    "description": "Plugin which serves as workspace explorer and allows CRUD operations on collections and documents.",
    "web_page": "INVALID URL",
    "dependencies": []
}