{
    "id": "text-editor",
    "name": "Text Editor",
    "authors": [
        {
            "first_name": "Filip",
            "last_name": "Zobic",
            "email": "filip.zobic.19@singimail.rs",
            "web_page": "INVALID URL"
        },
        {
            "first_name": "Bojan",
            "last_name": "Zdelar",
            "email": "bojan.zdelar.19@singimail.rs",
            "web_page": "INVALID URL"
        }
    ],
    "version": "1.0.0",
    "core_version": "1.0.0",
    "category": "editor",
    "licence": "MIT",
    "description": "Plugin which serves for CRUD operations on text files",
    "web_page": "INVALID URL",
    "dependencies": [
        {
            "id": "page-editor",
            "version": "1.0.0"
        }
    ]
}